+46731295082
+31 613355460
+351 923262022
+60 111700 0917
+7 7073050868
7073050868

==============================

+46 731295164 - Paper
+46 731295162 - Paper
+46 731295161 - Paper
+46 731295160 - Paper

+46 731295159 - Paper

+46 731295158 - Paper

+46 731295157 - Paper

46 731295156 - Paper

46 731295155 - Paper

Fran 33 757132149 - K Blocked + P Done

33 757132148 - Kg Blocked - P Done 

+7 9382087940 - Bl

+31 653224315 - Bl

+46 97010238053

+31 731291560 - Kg accepted but did not receive- problem with site


https://sms-receive.net/



+31 687880118 - Most Probably blocked

+1 2673800457 - K Blk

+1 9378891156 - K Block

+46 731291534 - K Block

+1 5416256169  - K Block

+1 7408752386 - K Block

60 1117000917 - K Block

+1 8057166685 - K Block

+1 8679921347 - K Block


372 58524815 - K Block

+46 769436266 - K Block